2020-11-26T10:07:56 delete from event where EventTime < 2020-10-17 10:07:55 (older than 40 days) ..
2020-11-26T10:07:57 .. deleted 1 event rows.
results:
удалено событий из ЕФРСБ ранее 2020-10-17 10:07:55: 1