*************************** 1. row ***************************
  id_SentEmail: 2
RecipientEmail: test@test.ru
 RecipientType: m
  TimeDispatch: 2021-07-01 15:32:22
   ExtraParams: {
  "Subject": "Уведомление о запросах",
  "Body": "Тестовое сообщение",
  "Receiver": "Иван"
}
*************************** 2. row ***************************
  id_SentEmail: 3
RecipientEmail: test2@test.ru
 RecipientType: m
  TimeDispatch: 2021-07-01 15:32:22
   ExtraParams: {
  "Subject": "Уведомление о запросах",
  "Body": "Тестовое сообщение",
  "Receiver": "Иван"
}
*************************** 3. row ***************************
  id_SentEmail: 4
RecipientEmail: aa@uu.ee
 RecipientType: a
  TimeDispatch: 2020-11-08 03:02:02
   ExtraParams: {
	"Subject": "Голосование \"Антикризисный управляющий 2021 года\"",
	"Body": "Здравствуйте, Кирсанова Лариса Владимировна.

Благодарим вас за участие в голосовании.
В номинации \"Профессиональное признание\" премии \"Антикризисный управляющий 2021 года\" Вы проголосовали за участника Серёгин Серёга Сергеевич (ИНН:322, СРО задорных)
Отдать свой голос другому кандидату можно до 23:59 18.10.2021

С уважением,
Оргкомитет премиии \"Антикризисный управляющий 2021 года\"
телефон\/факс: +7 (499) 673-03-37
эл.адрес: info@russianit.ru
сайт: www.russianit.ru
",
	"Receiver": "Кирсанова Лариса Владимировна"
}
