[
	{
		"Номер":"1"
		,"В_повестке":"О ситуации в Гондурасе"
		,"На_голосование":
		{
				"Формулировка":"Выразить озабоченность ситуацией в Гондурасе"
		}
	}
	,{
		"Номер":"2"
		,"В_повестке":"Выбор компании для осуществления охранных услуг"
		,"На_голосование":
		{
				"Формулировка":"Выбрать компанию для осуществления охранных услуг"
				,"Варианты":[
					"ООО \"Спартак\""
					,"ООО \"Рекс\""
					,"ООО \"Джильберт\""
				]
		}
	}
]