[
		{
			Краткое_наименование: "Всё таки дом"
			,ОКАТО: "01 000"
			,Развёрнутое_описание: "Многоквартирный дом"
			,Адрес:"Тверь, Лермонтова 8"
			,ID_Object:"{B8EDE880-8F2A-4F89-A051-2F772A41D7C7}"
			,Категория:"Транспорт"
			,Стадия:"Первые торги"
			,КлассификацияЕФРСБ:[
				{code:"0402002",name:"Право оперативного управления имуществом"}
			]
		}
]
