﻿{
	"id_Vote":1,
	"Кабинет":{
		"Участник": {
			"Фамилия":"Ботов"
			,"Имя":"Бот"
			,"Отчество":"Ботович"
		}
		,"Дата_заседания": "13.12.2011"
		, "Должник": {
			"Наименование": "ОАО Газмяс"
			,"Местонахождение": "г Москва, Божедомка, 12"
		}
	}
	,"Вопросы":[
		{
			"Номер": "1"
			,"В_повестке": "О ситуации в Гондурасе"
			,"На_голосование":
			{
				"Формулировка": "Выразить озабоченность ситуацией в Гондурасе"
			}
		}
	]
	,"Документы":[
		{
			"Время":"10.10.2010"
			,"Наименование":"Объявление о голосовании комитета"
			,"Файл":"Г.201010101130.txt"
			,"Размер":345
			,"doc_md5":"d131dd02c5e6eec4693d9a0698aff95c"
		}
	]
	,"Журнал":[
		{
			"Время":"01.02.2003 10:31"
			,"Событие":"АУ отдал команду на уведомление о заседании"
		}
	]
	,"Состояние":"Состоялось"
	,"Ответы":[
		{
			"На_вопрос":{
				"Номер":"1"
				,"Формулировка":"Выразить озабоченность ситуацией в Гондурасе"
			}
			,"Ответ":"За"
		}
	]
}