*************************** 1. row ***************************
     lastName: Иванов
   debtorName: ООО "Новострой-Технология"
id_MProcedure: 1
     UserName: Сергеева Светлана Михайловна (Банк Возрождение)
     id_MUser: 1
     UserName: Сергеева Светлана Михайловна (Банк Возрождение)
*************************** 2. row ***************************
     lastName: Иванов
   debtorName: ООО "Новострой-Технология"
id_MProcedure: 1
     UserName: Алексеев О А (ФНС)
     id_MUser: 3
     UserName: Алексеев О А (ФНС)
*************************** 3. row ***************************
     lastName: Иванов
   debtorName: ООО "Новострой-Технология"
id_MProcedure: 1
     UserName: Петрова П П
     id_MUser: 5
     UserName: Петрова П П
*************************** 4. row ***************************
     lastName: Иванов
   debtorName: Алексашенко А А
id_MProcedure: 2
     UserName: Сергеева Светлана Михайловна (Банк Возрождение)
     id_MUser: 1
     UserName: Сергеева Светлана Михайловна (Банк Возрождение)
*************************** 5. row ***************************
     lastName: Иванов
   debtorName: Алексашенко А А
id_MProcedure: 2
     UserName: Селянин И О
     id_MUser: 2
     UserName: Селянин И О
*************************** 6. row ***************************
     lastName: Иванов
   debtorName: ООО "КАРИНА"
id_MProcedure: 3
     UserName: Сергеева Светлана Михайловна (Банк Возрождение)
     id_MUser: 1
     UserName: Сергеева Светлана Михайловна (Банк Возрождение)
*************************** 7. row ***************************
     lastName: Иванов
   debtorName: ООО "КАРИНА"
id_MProcedure: 3
     UserName: Селянин И О
     id_MUser: 2
     UserName: Селянин И О
*************************** 8. row ***************************
     lastName: Иванов
   debtorName: ООО "КАРИНА"
id_MProcedure: 3
     UserName: Алексеев О А (ФНС)
     id_MUser: 3
     UserName: Алексеев О А (ФНС)
*************************** 9. row ***************************
     lastName: Иванов
   debtorName: ООО "КАРИНА"
id_MProcedure: 3
     UserName: Петрова П П
     id_MUser: 5
     UserName: Петрова П П
