{
	"Должник": {
		"Тип": "гражданин",
		"ИНН": "799080397802",
		"ОГРН": "303417390447644",
		"СНИЛС": "83538834844",
		"Адрес": "Пенза, Ленина 2",
		"Фамилия": "Голахвастов",
		"Имя": "Свирид",
		"Отчество": "Петрович"
	},
	"Судебный_акт_о_введении_процедуры": {
		"Номер_дела": "А51-5881/2021",
		"Наименование": "Решение о банкротстве",
		"Дата": "03.12.2019"
	},
	"Суд": {
		"Наименование": "Товарищеский суд",
		"Адрес": "Урюпинск, Косая 9"
	},
	"АУ": {
		"Фамилия": "Фролов",
		"Имя": "Фрол",
		"Отчество": "Фролович",
		"ИНН": "418984875530",
		"Номер_в_ЕФРСБ": "445",
		"Адрес": "Пенза, Совхозная 5-56",
		"СРО": "Печальные АУ"
	},
	"Сообщение_на_ефрсб_о_введении_процедуры": {
		"Number": "888",
		"PublishDate": "11.09.2012",
		"MessageGUID": "3DC19B4730052539736414B955E94138"
	},
	"Публикация_в_СМИ": {
		"Номер": "443",
		"Дата": "03.03.2015"
	}
}