{
	"Согласия": [
		{
			"АУ": {
				"id": 1,
				"text": "Иванов Иван Иванович"
			},
			"id_ProcedureStart": 4,
			"Заявление_на_банкротство": {
				"Дата_подачи": "18.01.2021"
			},
			"В_ответе": "4"
		},
		{
			"АУ": {
				"id": 4,
				"text": "Сидоров Сидор Сидорович"
			},
			"id_ProcedureStart": 3,
			"Заявление_на_банкротство": {
				"Дата_подачи": "18.01.2021"
			}
		}
	],
	"В_отчет": 4
}