stdClass Object
(
    [Должник] => stdClass Object
        (
            [Наименование] => ООО "ЛВЗ КРИСТАЛЛ-ЛЕФОРТОВО"
            [ИНН] => 1328005717
            [Адрес] => Республика Мордовия
            [ОГРН] => 1121328000738
        )

    [Сделки] => Array
        (
            [0] => stdClass Object
                (
                    [Контрагент] => stdClass Object
                        (
                            [Наименование] => ПАО СБЕРБАНК
                            [Адрес] => 117997, ГОРОД МОСКВА, УЛИЦА ВАВИЛОВА, ДОМ 19
                            [ИНН] => 7707083893
                            [ОГРН] => 1027700132195
                            [Поставщик] => false
                            [Потребитель] => false
                        )

                    [Договор] => stdClass Object
                        (
                            [Номер] => 1
                            [Название] => Оплата счетов
                            [Дата] => 01.10.2019
                            [Сумма] => 670894.00
                            [Предмет] => передача 10 тонн зерна за вознаграждение
                        )

                    [Краткий_комментарий] => краткий комментарий
                    [Подробный_анализ] => подробный анализ
                    [Подозрительная] => false
                    [Исполнения] => Array
                        (
                            [0] => stdClass Object
                                (
                                    [Дата] => 01.10.2019
                                    [Сумма] => 11080.00
                                    [Тип] => Денежные средства
                                    [Передано] => контрагенту
                                    [Краткое_наименование] => Дополнительное описание операции
                                    [Назначение] => ЗА 30/09/2019;ФИО:Кузькин Денис Владимирович;ДОП_ИНФ:Оплата по счету номер 7968 от 24.09.2019;
                                    [Подтверждающий_документ] => stdClass Object
                                        (
                                            [Название] => Платежное Поручение
                                            [Номер] => 812028
                                        )

                                )

                            [1] => stdClass Object
                                (
                                    [Дата] => 30.11.2020
                                    [Тип] => Ценные бумаги
                                    [Передано] => должнику
                                    [Краткое_наименование] => Банкт ВТБ, 25000 шт.
                                    [Ценные_бумаги] => stdClass Object
                                        (
                                            [Вид] => Акции
                                            [Эмитент] => Банкт ВТБ
                                            [Количество] => 25000
                                        )

                                )

                            [2] => stdClass Object
                                (
                                    [Дата] => 30.11.2020
                                    [Тип] => Недвижимое имущество
                                    [Передано] => должнику
                                    [Недвижимое_имущество] => stdClass Object
                                        (
                                            [Вид] => Квартира
                                            [Наименование] => Однокомнатная квартира
                                            [Площадь] => 16
                                            [Адрес] => г. Ижевск, Пушкинская улица, 241
                                            [Кадастровый_номер] => 47:14:1203001:814
                                        )

                                )

                            [3] => stdClass Object
                                (
                                    [Дата] => 30.11.2020
                                    [Тип] => Транспортные средства
                                    [Передано] => должнику
                                    [Транспортные_средства] => stdClass Object
                                        (
                                            [Вид] => Автомобиль легковой
                                            [Наименование] => Лада гранда
                                            [Год_выпуска] => 2018
                                            [VIN] => 4USBT53544LT26841
                                        )

                                )

                            [4] => stdClass Object
                                (
                                    [Дата] => 30.11.2020
                                    [Тип] => Услуга
                                    [Передано] => должнику
                                    [Краткое_наименование] => Уборка помещений
                                )

                        )

                )

            [1] => stdClass Object
                (
                    [Контрагент] => stdClass Object
                        (
                            [Наименование] => Алавердов Аркадий Сергеевич
                            [ИНН] => 230210569013
                            [Поставщик] => true
                            [Потребитель] => false
                        )

                    [Договор] => stdClass Object
                        (
                            [Сумма] => 7980.00
                        )

                    [Подозрительная] => false
                )

        )

)
