*************************** 1. row ***************************
                          id_MProcedure: 1
Краткое_наименование: Запорожец 1985 года
Развёрнутое_описание: Замечательная самодвижущаяся повозка светло салатового цвета с перламутровыми вставками, 27 лошадинных сил. Пробег 10 км, зимняя резина
                             Адрес: Ижевск, Лихвинцева 56-67
                              ID_Object: {4BDB8B58-665F-4A45-B22C-596AE3749EDF}
                                md5hash: b5dbb0c0189880787df1bafe239438a9
                           Регион: Республика Татарстан (Татарстан)
                     Категория: Транспорт
                           Стадия: a
   КлассификацияЕФРСБ: 0101016,0402002
                       isAvailableToAll: 1
                   Получатели: NULL
*************************** 1. row ***************************
id_Asset: 1
FileName: a.jpg
FileSize: 123789
 md5hash: 234987
*************************** 2. row ***************************
id_Asset: 1
FileName: b.gif
FileSize: 432435
 md5hash: 341678
*************************** 3. row ***************************
id_Asset: 1
FileName: clowds.txt
FileSize: 256
 md5hash: 32b71787948abf912ba89a2b6eab724f
