
################################## GET EVENTS FOR №2 id_GoogleCalendar ##################################
2021-08-26T10:07:56 .. sync without nextSyncToken.
2021-08-26T10:07:57 .. got 13 events.
2021-08-26T10:07:58 got 13 events for check
2021-08-26T10:07:59 passed the check 13 events
2021-08-26T10:08:00 inserted 13 events
results:
Добавлено 13 событий из google календаря.