{
	"ТипПроцедуры": "Наблюдение",
	"НаименованиеДолжника": "ООО Тратата",
	"Доступ_у_наблюдателей": [
		{
			"id": 0,
			"text": "Сергеева Светлана Михайловна (Банк Возрождение)"
		},
		{
			"id": 2,
			"text": "Алексеев О А (ФНС)"
		}
	]
}