2019-07-23T00:00:01 query 30 records from Manager to verify
2019-07-23T00:00:02   got 3 records
2019-07-23T00:00:03     request http://local.test/dm-mock/efrsb/web/dm-api.php/find-manager?inn=364484332544&efrsb_num=123,124,125
2019-07-23T00:00:04       got 1 efrsb Managers
2019-07-23T00:00:05     1) id_Manager:1, Иванов Иван Иванович (inn:364484332544,efrsb:123)
2019-07-23T00:00:06        found 1 manager on efrsb: [{"OGRNIP":null,"INN":"364484332544","FirstName":"Иван","LastName":"Иванов","MiddleName":"Иванович","ArbitrManagerID":3,"RegNum":null,"SRORegNum":"11"}]
2019-07-23T00:00:07        verified!
2019-07-23T00:00:08     2) id_Manager:2, Петров Петр Петрович (inn:,efrsb:124)
2019-07-23T00:00:09        skipped!
2019-07-23T00:00:10     3) id_Manager:4, Сидоров Сидор Сидорович (inn:,efrsb:125)
2019-07-23T00:00:11        skipped!
2019-07-23T00:00:12 query 30 records from Manager to verify
2019-07-23T00:00:13   got 0 records
results:
проверено АУ: 3