*************************** 1. row ***************************
 id_JobSite: 1
       Name: datamart
Description: витрина данных ПАУ
*************************** 2. row ***************************
 id_JobSite: 2
       Name: efrsb
Description: база данных ефрсб
*************************** 3. row ***************************
 id_JobSite: 3
       Name: test site
Description: test site description
*************************** 1. row ***************************
       id_Job: 1
   id_JobSite: 1
         Name: hourly
  Description: ежечасные работы
MaxAgeMinutes: 60
       Status: 0
      Enabled: 
*************************** 2. row ***************************
       id_Job: 2
   id_JobSite: 1
         Name: nightly
  Description: еженочные работы
MaxAgeMinutes: 1440
       Status: 1
      Enabled: 
*************************** 3. row ***************************
       id_Job: 3
   id_JobSite: 3
         Name: test job
  Description: test job description
MaxAgeMinutes: 1440
       Status: NULL
      Enabled: 
*************************** 1. row ***************************
      id_JobPart: 1
          id_Job: 1
            Name: efrsb_sync
     Description: синхронизация с ефрсб
          Status: 0
         Enabled: 
ExtraStateFields: NULL
*************************** 2. row ***************************
      id_JobPart: 2
          id_Job: 1
            Name: delete_old
     Description: удаление старых записей
          Status: 1
         Enabled: 
ExtraStateFields: NULL
*************************** 3. row ***************************
      id_JobPart: 3
          id_Job: 3
            Name: success_job1
     Description: success job1
          Status: NULL
         Enabled: 
ExtraStateFields: NULL
*************************** 4. row ***************************
      id_JobPart: 4
          id_Job: 3
            Name: exception_job
     Description: job with exception
          Status: NULL
         Enabled: 
ExtraStateFields: NULL
*************************** 5. row ***************************
      id_JobPart: 5
          id_Job: 3
            Name: success_job2
     Description: success job2
          Status: NULL
         Enabled: 
ExtraStateFields: NULL
*************************** 1. row ***************************
id_JobLog: 1
   id_Job: 1
  Started: 2020-01-28 10:30:01
 Finished: 2020-01-28 10:30:10
   Status: 0
*************************** 2. row ***************************
id_JobLog: 2
   id_Job: 1
  Started: 2020-01-28 11:30:01
 Finished: 2020-01-28 11:30:10
   Status: 1
*************************** 3. row ***************************
id_JobLog: 3
   id_Job: 3
  Started: 2019-07-23 00:00:01
 Finished: 2019-07-23 00:00:17
   Status: 0
*************************** 1. row ***************************
id_JobPartLog: 1
    id_JobLog: 2
   id_JobPart: 1
      Started: 2020-01-28 10:30:01
     Finished: 2020-01-28 10:30:05
       Status: 0
      Results: NULL
       Number: 0
*************************** 2. row ***************************
id_JobPartLog: 2
    id_JobLog: 2
   id_JobPart: 1
      Started: 2020-01-28 11:30:01
     Finished: 2020-01-28 11:30:05
       Status: 1
      Results: NULL
       Number: 1
*************************** 3. row ***************************
id_JobPartLog: 3
    id_JobLog: 3
   id_JobPart: 3
      Started: 2019-07-23 00:00:02
     Finished: 2019-07-23 00:00:06
       Status: 0
      Results: NULL
       Number: 0
*************************** 4. row ***************************
id_JobPartLog: 4
    id_JobLog: 3
   id_JobPart: 4
      Started: 2019-07-23 00:00:07
     Finished: 2019-07-23 00:00:11
       Status: 1000
      Results: 
Exception occurred: Exception - test job exception!

       Number: 1
*************************** 5. row ***************************
id_JobPartLog: 5
    id_JobLog: 3
   id_JobPart: 5
      Started: 2019-07-23 00:00:12
     Finished: 2019-07-23 00:00:16
       Status: 3
      Results: i got it!
       Number: 2
