2019-07-23T00:00:01 change db Site Description
 from "test site description"
   to "changed test site description"
2019-07-23T00:00:02 change db Job Description
 from "test job description"
   to "changed test job description"
 and MaxAgeMinutes from 1440 to 1440
******************************************************************************** { 
2019-07-23T00:00:04 change db JobPart Description
 from "success job1"
   to "changed success job1"
-------------------------------------------------------------------------------- { 
2019-07-23T00:00:06 changed success job1 (success_job1)
2019-07-23T00:00:07 action for success_job1!
2019-07-23T00:00:08 done (changed success job1)
-------------------------------------------------------------------------------- } 
2019-07-23T00:00:10 change db JobPart Description
 from "success job2"
   to "changed success job2"
-------------------------------------------------------------------------------- { 
2019-07-23T00:00:12 changed success job2 (success_job2)
2019-07-23T00:00:13 action for success_job2!
2019-07-23T00:00:14 done (changed success job2)
i got it!
-------------------------------------------------------------------------------- } 
******************************************************************************** } 
