******************************************************************************** { 
-------------------------------------------------------------------------------- { 
2019-07-23T00:00:03 success job1 (success_job1)
2019-07-23T00:00:04 action for success_job1!
2019-07-23T00:00:05 done (success job1)
-------------------------------------------------------------------------------- } 
-------------------------------------------------------------------------------- { 
2019-07-23T00:00:08 success job2 (success_job2)
2019-07-23T00:00:09 action for success_job2!
2019-07-23T00:00:10 done (success job2)
i got it!
-------------------------------------------------------------------------------- } 
-------------------------------------------------------------------------------- { 
2019-07-23T00:00:13 success job3 (success_job3)
2019-07-23T00:00:14 action for success_job3!
2019-07-23T00:00:15 done (success job3)
everything is ok!
-------------------------------------------------------------------------------- } 
******************************************************************************** } 
