total_count:2
after_ID_Object:
count_after_ID_Object:0
---------------
ID_Object:{4BDB8B58-665F-4A45-B22C-596AE3749EDF}
md5:b5dbb0c0189880787df1bafe239438a9
   "a.jpg" (size:123789,md5:234987)
   "b.gif" (size:432435,md5:341678)
---------------
ID_Object:{A57EFD92-9664-47C5-8466-D3DD91BBED55}
md5:381fb87af2a379c026ff42cc316a9961
