{
	"firstName": "Сидор",
	"lastName": "Сидоров",
	"middleName": "Сидорович",
	"efrsbNumber": "125",
	"INN": null,
	"id_Manager": 4,
	"id_Contract": 2,
	"ContractNumber": "2222",
	"ArbitrManagerID": 1,
	"HasIncoming": 0,
	"Email": "n@m.com",
	"category": "manager"
}