{
	"Заявитель": {
		"ИНН": "626394855120",
		"ОГРН": null,
		"Адрес": "Красноярский край Красноярск Красноярский Рабочий Пр., дом 127\/А, кв. 132",
		"Тип": "Физ_лицо",
		"Физ_лицо": {
			"Фамилия": "Молниеносный",
			"Имя": "Знак",
			"Отчество": "Тацитович",
			"СНИЛС": "24635514469"
		}
	},
	"Заявление_на_банкротство": {
		"Дата_подачи": "17.01.2021",
		"Подано": true,
		"В_суд": {
			"id": 2,
			"text": "Арбитражный суд города Москвы"
		},
		"Дата_рассмотрения": "27.01.2021 10:00",
		"Дата_принятия": null
	},
	"Номер_судебного_дела": null,
	"Запрос": {
		"Ссылка": null,
		"Время": {
			"акта": null
		},
		"Дополнительная_информация": null
	},
	"Запрос_дополнительная_информация": {
		"Дополнительная_информация": null
	},
	"id_ProcedureStart": "2",
	"Время_сверки": null,
	"АУ": {
		"id": 2,
		"text": "Петров Петр Петрович "
	},
	"Показывать_для_регистрации_в_ПАУ": true,
	"Показывать_СРО": true,
	"Назначение": {
		"Ссылка": null,
		"Время": {
			"акта": null
		},
		"Дополнительная_информация": null
	},
	"Назначение_дополнительная_информация": {
		"Дополнительная_информация": null
	},
	"ЕФРСБ": {
		"Номер": null,
		"Дата_публикации": null,
		"ID": null,
		"Дополнительная_информация": null
	},
	"ЕФРСБ_дополнительная_информация": {
		"Дополнительная_информация": null
	},
	"isChoosedInRequest": false,
	"Должник": {
		"ИНН": null,
		"ОГРН": null,
		"Адрес": "Республика Башкортостан УфаНабережная, дом 43, кв. 18",
		"Тип": "Физ_лицо",
		"Физ_лицо": {
			"Фамилия": "Абайдуллин",
			"Имя": "Валерий",
			"Отчество": "Кимович",
			"СНИЛС": "95017509503"
		}
	}
}