{
	"ТипПроцедуры": "Наблюдение",
	"НомерДела": "А71-8147/2019/2378",
	"Должник": {
		"Наименование": "Трижды ордена трижды красного знамени краснознамённый колхоз Путь к коммунизму",
		"ИНН": "3083054965",
		"ОГРН": "1132578398886",
		"СНИЛС": "92248310897",
		"Адрес": "Ленинград, ул Бассейная д 8/4, кв 7"
	}
}