*************************** 1. row ***************************
Body: {
	"Телефон_АУ": "222349",
	"Должник": {
		"Наименование": "ООО \"КАРИНА\"",
		"ИНН": "234788",
		"ОГРН": "234234345634",
		"СНИЛС": "null",
		"Местонахождение": "г. Ижевск, Лихвинцева 56, кв 67"
	},
	"Ознакомление": {
		"С_материалами": {
			"С_даты": "12.05.2019",
			"Время": {
				"Начало": "15:00",
				"Конец": "16:00"
			},
			"Адрес": "г. Ижевск, Ленина 30, кв 17"
		},
		"С_результатами": {
			"До_даты": "26.05.2019",
			"Время": {
				"Начало": "15:00",
				"Конец": "16:00"
			},
			"Адрес": "г. Ижевск, улица имени двадцати шести Бакинских коммисаров 30, кв 17"
		}
	},
	"Дата_заседания": "19.05.2019",
	"Время_заседания": "11:00",
	"Участники": [
		{
			"Фамилия": "Филькин",
			"Имя": "Михаил",
			"Отчество": "Борисович",
			"email": "e@e.e",
			"телефон": "82345565656",
			"id_Vote": 3,
			"Нет_в_списках": "false"
		},
		{
			"Фамилия": "Фёдоров",
			"Имя": "Фёдор",
			"Отчество": "Фёдорович",
			"email": "n@m.k",
			"телефон": "82345345871",
			"id_Vote": 4,
			"Нет_в_списках": "false"
		}
	],
	"Вопросы": [
		{
			"В_повестке": "Отчёт конкурсного управляющего ООО \"КАРИНА\" о своей деятельности",
			"На_голосование": {
				"Формулировка": "Принять к сведению отчет конкурсного управляющего ООО \"КАРИНА\" о своей деятельности",
				"Форма_бюллетеня": "f1"
			}
		},
		{
			"В_повестке": "Выбор компании для осуществления охранных услуг",
			"На_голосование": {
				"Формулировка": "Выбрать компанию для осуществления охранных услуг",
				"Форма_бюллетеня": "f2",
				"Варианты": [
					"ООО \"Спартак\"",
					"ООО \"Рекс\"",
					"ООО \"Мухтар\""
				]
			}
		}
	],
	"id_MProcedure": "3",
	"Состояние": "Не состоялось",
	"id_Meeting": "3",
	"Голосование": [
		{
			"ФИО": "Иванов Иван Иванович",
			"email": "f@g.h",
			"Уведомлен": "15.05.2019 10:00",
			"id_Vote": "2",
			"Ответов": "2"
		},
		{
			"ФИО": "Филькенштейн Мойша Моисеевич",
			"email": "e@e.e",
			"Уведомлен": "15.05.2019 10:00",
			"id_Vote": "3",
			"Ответов": "2",
			"Проголосовал": "15.05.2019 16:00:15",
			"Ответы": [
				{
					"На_вопрос": {
						"Номер": "2",
						"Формулировка": "Выразить озабоченность ситуацией в Гондурасе"
					},
					"Ответ": "За",
					"Подписано": "15.05.2019 16:00:15"
				},
				{
					"На_вопрос": {
						"Номер": "3",
						"Формулировка": "Выбрать компанию для осуществления охранных услуг"
					},
					"Ответ": "ООО \"Рекс\"",
					"Подписано": "15.05.2019 16:00:15"
				}
			]
		}
	],
	"Заседание_не_состоялось": {
		"Пояснения": ""
	}
}
