--------------------
    CaseNumber="А71-14496/2013"
    NextSessionDate=""
    Debtors:
    .
        isCitizen:False
        Name:"ОБЩЕСТВО С ОГРАНИЧЕННОЙ ОТВЕТСТВЕННОСТЬЮ УПРАВЛЯЮЩАЯ КОМПАНИЯ "СВЕТЛЫЙ ГОРОД""
        INN:"1833058504"
        OGRN:"1101840007312"
        SNILS:""
        Address:"Удмуртская Респ, Ижевск г, Кирова ул, 172, БЛОК 14"
    Applicant:
        isCitizen:True
        Name:"Фдеева Сергея Терентьевича"
        INN:""
        OGRN:""
        SNILS:""
        Address:"Данные скрыты"
