{
	"Контактная_информация": {
		"email": "",
		"Телефон": ""
	},
	"Долг": {
		"Основная_сумма": "",
		"Санкции": {
			"Сумма": "",
			"Одной_суммой": true
		}
	},
	"Банковские_реквизиты": {
		"Структурировано": true,
		"Банк": {
			"Наименование": "",
			"Отделение": "",
			"БИК": "",
			"Корреспондентский_счёт": ""
		},
		"Рассчётный_счёт": ""
	}
}