{
	"Кредитор": {
		"Наименование": {
			"Краткое": "Сбер",
			"Полное": "ПАУ Сбербанк"
		},
		"ИНН": "0944375521",
		"ОГРН": "1102110604804",
		"Руководитель": "Артёмов Артём Артёмович",
		"Адрес": {
			"Юридический": "Рязань, Королёва 34-76",
			"Почтовый": "Тамбов, Зёленая 11"
		}
	},
	"Контактная_информация": {
		"email": "drugoi@creditor.ru",
		"Телефон": "1111111"
	},
	"Долг": {
		"Основная_сумма": "54000",
		"Санкции": {
			"Одной_суммой": false,
			"Пени": "1",
			"Штрафы": "2",
			"Неустойки": "3",
			"Проценты": "4"
		}
	},
	"Банковские_реквизиты": {
		"Структурировано": false,
		"Текстом": "В счёт счёта на счёт графа по поводу счёта"
	}
}