*************************** 1. row ***************************
    vote_inn: 323
BulletinText: NULL
 nominee_inn: 322
 nominee_FIO: Серёгин Серёга Сергеевич
    lastName: Забегайло
  middleName: Убегаевич
   firstName: Выбегай
         SRO: Слабоумие и отвага
       email: NULL
*************************** 2. row ***************************
    vote_inn: 327
BulletinText: отдал
 nominee_inn: 534
 nominee_FIO: Васильев Василий Васильевич
    lastName: Красный
  middleName: Окуневич
   firstName: Карась
         SRO: Три танкиста и помощник
       email: NULL
*************************** 3. row ***************************
    vote_inn: 0003
BulletinText: ﻿Я, Арбитражный управляющий Петров Иван Петрович (ИНН:, СРО )

01.10.2020 голосую за кандидата на премию \"Антикризисный управляющий года\" в номинации \"Профессиональное признание\" арбитражного управляющего

Серёгин Серёга Сергеевич (ИНН:322, СРО СРО задорных)

В ходе голосования мне предлагался список кандидатов:
1) Васильев Василий Васильевич (ИНН:534, СРО умелых)
2) Серёгин Серёга Сергеевич (ИНН:322, СРО задорных)

 nominee_inn: 322
 nominee_FIO: Серёгин Серёга Сергеевич
    lastName: Петров
  middleName: Петрович
   firstName: Иван
         SRO: 
       email: aa@uu.ee
*************************** 4. row ***************************
    vote_inn: 0002
BulletinText: ﻿Я, Арбитражный управляющий Петров Петр Петрович (ИНН:, СРО )

01.10.2020 голосую за кандидата на премию \"Антикризисный управляющий года\" в номинации \"Профессиональное признание\" арбитражного управляющего

Васильев Василий Васильевич (ИНН:534, СРО СРО умелых)

В ходе голосования мне предлагался список кандидатов:
1) Васильев Василий Васильевич (ИНН:534, СРО умелых)
2) Серёгин Серёга Сергеевич (ИНН:322, СРО задорных)

 nominee_inn: 534
 nominee_FIO: Васильев Василий Васильевич
    lastName: Петров
  middleName: Петрович
   firstName: Петр
         SRO: 
       email: aa@uu.ee
