*************************** 1. row ***************************
   id_Contract: 1
    id_Manager: 5
      lastName: Александров
     firstName: Александр
    middleName: Александрович
   efrsbNumber: 2354ак
           INN: NULL
 BankroTechAcc: NULL
 id_MProcedure: 6
    casenumber: 623484
procedure_type: n
    debtorName: КараСтройМяс
     debtorInn: 3455345
    debtorOgrn: 345534
   debtorSnils: NULL
    p_revision: NULL
p_ctb_revision: 0
      data_len: NULL
    d_revision: NULL
   ctb_allowed: 0
p_Content_hash: NULL
d_Content_hash: NULL
