*************************** 1. row ***************************
            id_Manager: 1
              lastName: Иванов
          ManagerEmail: x@y.com
              Password: 1
   ManagerEmail_Change: NULL
ManagerPassword_Change: NULL
*************************** 2. row ***************************
            id_Manager: 2
              lastName: Петров
          ManagerEmail: z@w.com
              Password: 2
   ManagerEmail_Change: NULL
ManagerPassword_Change: NULL
*************************** 3. row ***************************
            id_Manager: 4
              lastName: Сидоров
          ManagerEmail: n@m.com
              Password: 3
   ManagerEmail_Change: NULL
ManagerPassword_Change: NULL
