{
	"Вопрос": {
		"Номер": 1
		, "На_голосование": {
			"Формулировка": "Выбрать компанию для осуществления охранных услуг"
			, "Варианты": [ "ООО \"Рекс\"", "ООО \"Спартак\"", "ООО \"Мухтар\"" ]
			, "Форма_бюллетеня": "f2"
		}
	}
	, "Голоса": [
		  { "Участник": "Иванов И И",				"Ответ": "ООО \"Каштанка\"" }
		, { "Участник": "Петров П П",				"Ответ": "ЧОП \"Анатоле, Чаке, вся президентская рать и партнёры\"" }
		, { "Участник": "Коммисаржевский-Закс К К",	"Ответ": "Вариант 6" }
		, { "Участник": "Паустовский К К",			"Ответ": "Вариант 7" }
		, { "Участник": "Воробьёв В В",				"Ответ": "Вариант 8" }
		, { "Участник": "Лепихин Л Л",				"Ответ": "Вариант 9" }
		, { "Участник": "Дзержинский Ф Э",			"Ответ": "Вариант 10" }
		, { "Участник": "Растропопович Р Р",		"Ответ": "ОАО \"Гиперболоиды инженера Гарина\"" }
		, { "Участник": "Подколёсин П П",			"Ответ": "ООО \"Рекс\"" }
		, { "Участник": "Сухово-кобылин С С",		"Ответ": "ООО \"Рекс\"" }
		, { "Участник": "Дворжак Д Д",				"Ответ": "ООО \"Рекс\"" }
	]
}