*************************** 1. row ***************************
      id_MData: 2
id_ManagerUser: 1
  fileData_len: 1392
      revision: -99
   ContentHash: NULL
    MData_Type: a
*************************** 2. row ***************************
      id_MData: 3
id_ManagerUser: 1
  fileData_len: 1
      revision: -98
   ContentHash: NULL
    MData_Type: k
*************************** 3. row ***************************
      id_MData: 5
id_ManagerUser: 1
  fileData_len: 2
      revision: -96
   ContentHash: w
    MData_Type: d
