2021-07-04T09:00:01 query from Manager to send requests (where DateOfCreation > TimeDispatch IS NULL)..
2021-07-04T09:00:03 got 0 rows from Mrequest to send
2021-07-04T09:00:04 0 prepared messages to send ..
