2019-07-23T00:00:02 query for max_revision from efrsb_sro ..
2019-07-23T00:00:03.. got max_revision=2.
2019-07-23T00:00:04 request..
http://local.test/dm-mock/efrsb/web/replication-api.php/sro?revision-greater-than=2&portion-size=1
2019-07-23T00:00:05 .. got 0 sros.
2019-07-23T00:00:06 no sros to insert!
results:
загружено 0 изменёний СРО