*************************** 1. row ***************************
     id_SRO: 1
       OGRN: NULL
     RegNum: 11
        INN: 9186922011
       Name: Ассоциация "ДМСО" - Ассоциация "Дальневосточная межрегиональная саморегулируемая организация профессиональных арбитражных управляющих"
 ShortTitle: МЦПУ2
      Title: NULL
   UrAdress: NULL
   Revision: 0
   SROEmail: s2@s.ru
SROPassword: 2
    CEOName: Феофанова Ульяна Васильевна
*************************** 2. row ***************************
     id_SRO: 2
       OGRN: NULL
     RegNum: 10
        INN: 9186922011
       Name: Национальный Союз профессионалов антикризисного управления
 ShortTitle: МЦПУ
      Title: NULL
   UrAdress: NULL
   Revision: 1
   SROEmail: s@s.ru
SROPassword: 1
    CEOName: Макрошин Леонид Богданович
*************************** 3. row ***************************
     id_SRO: 3
       OGRN: NULL
     RegNum: 1
        INN: 4418969937
       Name: NULL
 ShortTitle: NULL
      Title: NULL
   UrAdress: NULL
   Revision: 2
   SROEmail: NULL
SROPassword: NULL
    CEOName: NULL
