*************************** 1. row ***************************
        id_Event: 1
id_Push_receiver: 2
 Time_dispatched: 2020-11-26 09:07:55
     Time_pushed: 2020-11-26 10:07:59
       ErrorText: unexpected transport!
        SentText: NULL
    ResponseText: NULL
*************************** 2. row ***************************
        id_Event: 2
id_Push_receiver: 1
 Time_dispatched: 2020-11-26 08:07:55
     Time_pushed: 2020-11-26 10:08:00
       ErrorText: NULL
        SentText: {
	"notification": {
		"title": "КК, 27.11.2020 в 12:01 (пятница), ",
		"body": "Комитет кредиторов в пятницу 27 ноября в 12:01 (из объявления ефрсб № 567)"
	},
	"data": {
		"category": "efrsb",
		"url": "https:\/\/old.bankrot.fedresurs.ru\/MessageWindow.aspx?ID=26378"
	}
}
    ResponseText: "ok"
*************************** 3. row ***************************
        id_Event: 6
id_Push_receiver: 5
 Time_dispatched: 2020-11-26 12:07:55
     Time_pushed: NULL
       ErrorText: NULL
        SentText: NULL
    ResponseText: NULL
