2020-11-26T10:07:56 delete from Message with no actual event 
2020-11-26T10:07:57   where PublishDate < 2020-09-27 10:07:55 (older than 60 days) ..
2020-11-26T10:07:58 .. deleted 1 Message rows.
results:
удалено сообщений ранее 2020-09-27 10:07:55: 1