{
	"Дата": "10.10.2020",
	"Сумма_за_сообщение": {
		"Физлицо": {
			"Задан": true,
			"Значение": "222.00"
		},
		"Физлицо_с_комиссией": {
			"Задан": true,
			"Значение": "444.00"
		},
		"Юрлицо": {
			"Задан": true,
			"Значение": "111.00"
		},
		"Юрлицо_с_комиссией": {
			"Задан": true,
			"Значение": "333.00"
		}
	}
}