{
	"Выбранная_процедура": {
		"id": 1,
		"text": "Карапетов Карапет Карапетович",
		"data": {
			"Должник": {
				"Наименование": "Карапетов Карапет Карапетович",
				"ИНН": "775983124644",
				"СНИЛС": "66733151508"
			},
			"АУ": {
				"Фамилия": "Олегов",
				"Имя": "Олег",
				"Отчество": "Олегович",
				"НомерЕФРСБ": 2
			}
		}
	},
	"Процедура": {
		"Управляющий": "Олегов Олег Олегович",
		"КогоПредставляетЗаявитель": "ПАО ТудаСюдаБанк"
	},
	"Должник": {
		"ИНН": "775983124644",
		"СНИЛС": "66733151508"
	},
	"Пояснения": "вы торчите нам 1лям по реестру!\n открывайте данные немедленено!"
}