*************************** 1. row ***************************
                  DebtorName: ПАО "Тутаевский моторный завод"
efrsbPrescriptionPublishDate: NULL
     efrsbPrescriptionNumber: NULL
         efrsbPrescriptionID: NULL
