2019-07-23T00:00:02 query for 100 procedure starts after 2019-07-23 00:00:01 to update efrsb fields ..
2019-07-23T00:00:04 .. got 1 starts (checked null - null) to update efrsb fields
2019-07-23T00:00:05 request for efrsb messages http://local.test/dm-mock/efrsb/web/dm-api.php?action=start-info ..
2019-07-23T00:00:06 .. got 1 efrsb messages to update procedure starts
2019-07-23T00:00:08 updated 1 procedures
2019-07-23T00:00:09 query for 100 procedure starts after 2019-07-23 00:00:01 to update efrsb fields ..
2019-07-23T00:00:11 .. got 0 starts to update efrsb fields
results:
проверены выдвижения (01.03.2021 - 01.03.2021): 1,
 получена информация о сообщениях ЕФРСБ для: 1