*************************** 1. row ***************************
       id_GCEvent: 7
        EventTime: 2021-08-28 09:30:00
     EventTimeEnd: 2021-08-28 10:30:00
        EventType: п
      EventSource: ama
id_GoogleCalendar: 2
    id_MProcedure: NULL
*************************** 2. row ***************************
       id_GCEvent: 8
        EventTime: 2021-09-12 09:30:00
     EventTimeEnd: 2021-09-12 10:30:00
        EventType: п
      EventSource: ama
id_GoogleCalendar: 2
    id_MProcedure: NULL
*************************** 3. row ***************************
       id_GCEvent: 9
        EventTime: 2021-11-29 00:00:00
     EventTimeEnd: 2021-11-29 00:00:00
        EventType: t
      EventSource: ama
id_GoogleCalendar: 2
    id_MProcedure: NULL
*************************** 4. row ***************************
       id_GCEvent: 10
        EventTime: 2021-11-26 10:00:00
     EventTimeEnd: 2021-11-26 10:00:00
        EventType: q
      EventSource: kad
id_GoogleCalendar: 2
    id_MProcedure: NULL
*************************** 5. row ***************************
       id_GCEvent: 11
        EventTime: 2021-09-21 10:00:00
     EventTimeEnd: 2021-09-21 11:00:00
        EventType: п
      EventSource: ama
id_GoogleCalendar: 2
    id_MProcedure: NULL
*************************** 6. row ***************************
       id_GCEvent: 12
        EventTime: 2021-09-22 10:00:00
     EventTimeEnd: 2021-09-24 11:00:00
        EventType: п
      EventSource: ama
id_GoogleCalendar: 2
    id_MProcedure: NULL
*************************** 7. row ***************************
       id_GCEvent: 13
        EventTime: 2021-09-29 09:30:00
     EventTimeEnd: 2021-09-29 10:30:00
        EventType: п
      EventSource: ama
id_GoogleCalendar: 2
    id_MProcedure: NULL
*************************** 8. row ***************************
       id_GCEvent: 14
        EventTime: 2021-10-20 16:10:00
     EventTimeEnd: 2021-10-20 17:10:00
        EventType: м
      EventSource: ama
id_GoogleCalendar: 2
    id_MProcedure: NULL
*************************** 9. row ***************************
       id_GCEvent: 15
        EventTime: 2021-11-24 17:11:25
     EventTimeEnd: 2021-11-24 18:11:25
        EventType: п
      EventSource: ama
id_GoogleCalendar: 2
    id_MProcedure: NULL
*************************** 10. row ***************************
       id_GCEvent: 16
        EventTime: 2021-12-10 23:59:59
     EventTimeEnd: 2021-12-11 00:59:59
        EventType: п
      EventSource: ama
id_GoogleCalendar: 2
    id_MProcedure: NULL
*************************** 11. row ***************************
       id_GCEvent: 17
        EventTime: 2021-12-16 23:59:59
     EventTimeEnd: 2021-12-17 00:59:59
        EventType: п
      EventSource: ama
id_GoogleCalendar: 2
    id_MProcedure: NULL
*************************** 12. row ***************************
       id_GCEvent: 18
        EventTime: 2022-12-26 23:59:59
     EventTimeEnd: 2022-12-27 00:59:59
        EventType: п
      EventSource: ama
id_GoogleCalendar: 2
    id_MProcedure: NULL
*************************** 13. row ***************************
       id_GCEvent: 19
        EventTime: 2021-11-29 00:00:00
     EventTimeEnd: 2021-11-29 00:00:00
        EventType: t
      EventSource: ama
id_GoogleCalendar: 2
    id_MProcedure: NULL
