[
	{
		"Наименование": "Байк!",
		"Объект_конкурсной_массы": null,
		"Начальная_цена": "150000",
		"Размер_задатка": "10000",
		"Размер_задатка_ед": "%",
		"Шаг_аукциона": "10000",
		"Шаг_аукциона_ед": "%",
		"Краткое_описание": "Велосипед горный",
		"Точный_адрес": "Республика Башкирия, г. Уфа, Пушкина 10",
		"Порядок_ознакомления": "12 сентября 2017 года, в 11:00"
	}
]