{
	"Дата_заседания": "01.04.2019",
	"Время_заседания": "13:00",
	"Ознакомление": {
		"С_материалами": {
			"С_даты": "11.05.2019",
			"Время": {
				"Начало": "14:00",
				"Конец": "17:00"
			},
			"Адрес": "г. Ижевск, Буммашевская 44, кв 47"
		},
		"С_результатами": {
			"До_даты": "27.05.2019",
			"Время": {
				"Начало": "14:00",
				"Конец": "17:00"
			},
			"Адрес": "г. Ижевск, Буммашевская 44, кв 47"
		}
	},
	"Должник": {
		"Местонахождение": "г. Ижевск, Коммунаров 222, кв 11"
	},
	"Телефон_АУ": "719653",
	"Участники": [
		{
			"Фамилия": "Филькенштейн",
			"Имя": "Мойша",
			"Отчество": "Моисеевич",
			"email": "e@e.e",
			"телефон": "+7(234)-544-72-76"
		},
		{
			"Фамилия": "Иванов",
			"Имя": "Иван",
			"Отчество": "Иванович",
			"email": "f@g.h",
			"телефон": "+7(234)-532-22-23"
		}
	],
	"Вопросы": [
		{
			"В_повестке": "Выбор компании для осуществления охранных услуг",
			"На_голосование": {
				"Формулировка": "Выбрать компанию для осуществления охранных услуг",
				"Форма_бюллетеня": "f2",
				"Варианты": [
					"ООО \"Спартак\"",
					"ООО \"Рекс\"",
					"ООО \"Мухтар\""
				]
			}
		},
		{
			"В_повестке": "О ситуации в Гондурасе",
			"На_голосование": {
				"Формулировка": "Выразить озабоченность ситуацией в Гондурасе",
				"Форма_бюллетеня": "f1"
			}
		}
	]
}