*************************** 1. row ***************************
           id_MUser: 1
           UserName: Сергеева Светлана Михайловна (Банк Возрождение)
          UserEmail: a@o.u
       UserPassword: 1
          Confirmed: 
   UserEmail_Change: NULL
UserPassword_Change: new_test_pass
*************************** 2. row ***************************
           id_MUser: 2
           UserName: Селянин И О
          UserEmail: eee@aa.uu
       UserPassword: 567
          Confirmed:  
   UserEmail_Change: NULL
UserPassword_Change: NULL
*************************** 3. row ***************************
           id_MUser: 3
           UserName: Алексеев О А (ФНС)
          UserEmail: oo@ee.uu
       UserPassword: 891
          Confirmed: 
   UserEmail_Change: NULL
UserPassword_Change: NULL
*************************** 4. row ***************************
           id_MUser: 4
           UserName: Осин Я Я
          UserEmail: kk@ee.uu
       UserPassword: 527
          Confirmed:  
   UserEmail_Change: NULL
UserPassword_Change: NULL
