{
	"id_SRO": 2,
	"RegNum": "10",
	"ShortTitle": "МЦПУ",
	"Должник": {
		"Тип": "Физ_лицо",
		"Физ_лицо": {
			"Фамилия": "Абайдуллин",
			"Имя": "Валерий",
			"Отчество": "Кимович",
			"СНИЛС": "09876543210"
		},
		"ИНН": "",
		"ОГРН": "",
		"Адрес": "г. Ижевск"
	},
	"Заявление_на_банкротство": {
		"Подано": true,
		"Дата_подачи": "17.01.2021",
		"В_суд": {
			"id": 1,
			"text": "Арбитражный суд Удмуртской Республики"
		},
		"Дата_рассмотрения": "27.01.2021 10:00"
	},
	"Номер_судебного_дела": "",
	"Запрос": {
		"Время": {
			"акта": "09.03.2021",
			"получен": true,
			"получения": "26.07.2015",
			"опрошен_ау": true,
			"опроса": "26.07.2015",
			"отвечен": true,
			"ответа": "26.07.2015"
		}
	},
	"Согласия_АУ": {
		"В_отчет": 2,
		"Согласия": [
			{
				"АУ": {
					"id": 2,
					"text": "Петров Петр Петрович"
				},
				"id_ProcedureStart": 2,
				"Заявление_на_банкротство": {
					"Дата_подачи": "17.01.2021"
				}
			}
		]
	},
	"Заявитель": {
		"Тип": "Физ_лицо",
		"Физ_лицо": {
			"Фамилия": "Тростников",
			"Имя": "Сахар",
			"Отчество": "Микронович",
			"СНИЛС": "37543718709"
		},
		"ИНН": "698028696185",
		"ОГРН": "5038602357129",
		"Адрес": "Республика Татарстан  Набережные Челны Пр. Мира, дом 67"
	}
}