{
	"id_SRO": 2,
	"RegNum": "10",
	"ShortTitle": "МЦПУ",
	"Должник": {
		"Тип": "Юр_лицо",
		"ИНН": "1833058504",
		"ОГРН": "1101840007312",
		"Адрес": "г. Москва",
		"Юр_лицо": {
			"Наименование": "ООО УК \"СВЕТЛЫЙ ГОРОД\""
		}
	},
	"Заявление_на_банкротство": {
		"Подано": true,
		"Дата_подачи": "19.01.2021",
		"В_суд": {
			"id": 2,
			"text": "Арбитражный суд города Москвы"
		},
		"Дата_рассмотрения": ""
	},
	"Номер_судебного_дела": "123",
	"Запрос": {
		"Время": {
			"акта": "09.03.2021",
			"получен": true,
			"получения": "26.07.2015",
			"опрошен_ау": false,
			"опроса": "",
			"отвечен": false,
			"ответа": ""
		}
	},
	"Согласия_АУ": {
		"В_отчет": 1,
		"Согласия": [
			{
				"АУ": {
					"id": 1,
					"text": "Иванов Иван Иванович"
				},
				"id_ProcedureStart": 1,
				"Заявление_на_банкротство": {
					"Дата_подачи": "19.01.2021"
				}
			}
		]
	}
}