stdClass Object
(
    [Информация_на_дату] => 20.01.2020
    [Должник] => stdClass Object
        (
            [Наименование] => ООО «Рога и Копыта»
            [ОГРН] => 1234567890127
            [ИНН] => 0000000000
        )

    [Номер_судебного_дела] => 789
    [Тип_процедуры] => КП
    [Кредиторы] => Array
        (
            [0] => stdClass Object
                (
                    [Организация] => stdClass Object
                        (
                            [Наименование] => ОАО Удмуртэнерго
                            [Руководитель] => Иоанов Иван Иванович
                            [ОГРН] => 000000000000000
                            [ИНН] => 9876543210
                        )

                    [Адрес] => 426000, Удмуртская Республика, город Ижевск, Советская 1
                    [Адрес_почтовых_уведомлений] => 426000, Удмуртская Республика, город Ижевск, Советская 1
                    [Контактные_телефоны] => 89997776655
                    [Банковские_реквизиты] => stdClass Object
                        (
                            [Банк] => ОАО «Мобилбанк»
                            [Кор_счет] => 30122854852585655825
                            [БИК] => 049401825
                            [Номер_счета] => 12345678901234567890
                        )

                    [Требования] => Array
                        (
                            [0] => stdClass Object
                                (
                                    [Очередь] => 1
                                    [Дата_возникновения] => 20.01.2020
                                    [Размер] => 999.99
                                    [Назначение] => Задолженность за аренду помещения
                                    [Основание] => Договор аренды нежилого помещения №004323606 от 26.06.2019г.
                                    [Погашения] => Array
                                        (
                                            [0] => stdClass Object
                                                (
                                                    [Дата] => 01.10.2019
                                                    [Остаток] => 999.99
                                                    [Сумма] => 900
                                                    [Реквизиты] => Платежное поручение №3347 от 10.06.2008г.
                                                )

                                            [1] => stdClass Object
                                                (
                                                    [Дата] => 02.12.2019
                                                    [Остаток] => 99.99
                                                    [Сумма] => 99
                                                    [Реквизиты] => Платежное поручение №3347 от 10.06.2008г.
                                                )

                                        )

                                )

                        )

                )

            [1] => stdClass Object
                (
                    [Физическое_лицо] => stdClass Object
                        (
                            [Паспортные_данные] => 
                            [Имя] => Лицо
                            [Фамилия] => Физ
                            [Отчество] => 1
                            [СНИЛС] => 
                            [ИНН] => 
                        )

                    [Адрес] => 
                    [Адрес_почтовых_уведомлений] => 426000, Удмуртская Республика, город Ижевск, Советская 1
                    [Контактные_телефоны] => 
                    [Банковские_реквизиты] => stdClass Object
                        (
                            [Банк] => ОАО «Мобилбанк»
                            [Кор_счет] => 30122854852585655825
                            [БИК] => 049401825
                            [Номер_счета] => 12345678901234567890
                        )

                    [Требования] => Array
                        (
                            [0] => stdClass Object
                                (
                                    [Очередь] => 1
                                    [Дата_возникновения] => 20.01.2020
                                    [Размер] => 999.99
                                    [Назначение] => Задолженность за аренду помещения
                                    [Основание] => Договор аренды нежилого помещения №004323606 от 26.06.2019г.
                                    [Погашения] => Array
                                        (
                                            [0] => stdClass Object
                                                (
                                                    [Дата] => 01.10.2019
                                                    [Остаток] => 999.99
                                                    [Сумма] => 900
                                                    [Реквизиты] => Платежное поручение №3347 от 10.06.2008г.
                                                )

                                            [1] => stdClass Object
                                                (
                                                    [Дата] => 02.12.2019
                                                    [Остаток] => 99.99
                                                    [Сумма] => 99
                                                    [Реквизиты] => Платежное поручение №3347 от 10.06.2008г.
                                                )

                                        )

                                )

                        )

                )

        )

)
