stdClass Object
(
    [Запрошен_список] => stdClass Object
        (
            [процедур_загруженных_после_ревизии] => 0
            [ограниченый_длиной_не_более] => 1
        )

    [Всего_после_указанной_в_запросе_ревизии_загружено_процедур] => 2
    [Запрошенный_список_процедур] => Array
        (
            [0] => stdClass Object
                (
                    [id_MProcedure] => 2
                    [revision] => 2
                )

        )

)
