stdClass Object
(
    [Запрошен_список] => stdClass Object
        (
            [процедур_загруженных_после_ревизии] => 0
            [ограниченый_длиной_не_более] => 100
            [по_делу_номер] => А16-976/2014
        )

    [Всего_после_указанной_в_запросе_ревизии_загружено_процедур] => 1
    [Запрошенный_список_процедур] => Array
        (
            [0] => stdClass Object
                (
                    [id_MProcedure] => 4
                    [revision] => 4
                )

        )

)
